<svg width="32" height="32" viewBox="0 0 32 32" fill="#252f3f" xmlns="http://www.w3.org/2000/svg">
<path d="M15.8744 0.783569C13.6071 0.784854 11.3682 1.28283 9.31752 2.24193C7.26688 3.20102 5.4552 4.59754 4.012 6.33165C4.0301 6.9813 4.0452 7.96063 4.0535 9.20041L4.0812 13.3825L4.1552 10.2661C4.1959 8.55193 4.2469 7.0836 4.2687 7.00307C4.2905 6.92257 4.3222 7.53905 4.3394 8.37317L4.3707 9.88976L4.4228 8.00551C4.4708 6.26955 4.4775 6.38891 4.5082 9.52211C4.5481 13.6024 4.66869 13.2502 4.71274 8.92465L4.74324 5.93742L4.79344 8.92465C4.83624 11.4702 4.84854 11.6673 4.87664 10.2574C4.89484 9.34747 4.93894 8.14799 4.97474 7.59189C5.03384 6.67395 5.04284 6.7713 5.07254 8.64891L5.10514 10.717L5.16884 8.97061C5.26898 6.22815 5.29514 6.22154 5.34951 8.92462L5.40041 11.4523L5.43221 8.83269C5.46931 5.78043 5.59099 5.80762 5.63785 8.87869L5.67005 10.9927L5.72015 7.91359L5.77025 4.83444L5.80585 8.74083C5.84275 12.7934 5.9532 12.9953 6.00698 9.10847C6.03008 7.4428 6.04318 7.28395 6.09078 8.09741L6.14728 9.06253L6.17548 8.14337C6.24158 5.99188 6.34218 6.15832 6.37006 8.46507L6.39846 10.8089L6.46946 8.43367C6.50856 7.12726 6.56446 6.03469 6.59381 6.00563C6.62321 5.97653 6.65631 7.04544 6.66771 8.38087L6.68841 10.8089L6.74001 8.60295L6.79151 6.397L6.82571 8.74083C6.86371 11.3463 6.97596 11.1429 7.02845 8.37317L7.05895 6.76465L7.11075 8.78677C7.15435 10.4851 7.16735 10.6249 7.19215 9.65997C7.20865 9.02805 7.25305 8.15948 7.29105 7.72975C7.34825 7.08388 7.36535 7.29892 7.39025 8.97061L7.42025 10.9927L7.48205 8.25809C7.51605 6.75401 7.57145 5.49602 7.60533 5.46242C7.63923 5.42872 7.67533 6.78349 7.68563 8.47279C7.69853 10.5835 7.72163 11.1848 7.75953 10.3953C7.78963 9.76337 7.82303 9.32575 7.83353 9.42264C7.84373 9.51954 7.88323 9.56825 7.92073 9.5309C7.95823 9.4935 8.01393 8.93849 8.04419 8.29759C8.08529 7.4237 8.10659 7.8678 8.12959 10.0736C8.16319 13.3034 8.26845 12.9097 8.326 9.33827L8.35699 7.40805L8.40849 9.70592C8.44829 11.4903 8.4664 11.7368 8.4901 10.8089C8.507 10.1517 8.5515 9.24174 8.589 8.78677C8.6499 8.04864 8.6608 8.15257 8.68985 9.75189L8.72244 11.5442L8.77396 9.96623C8.80236 9.09826 8.85675 8.35709 8.89505 8.31932C8.93325 8.28162 8.97295 9.01242 8.98315 9.94344C9.00135 11.5938 9.00315 11.6085 9.05725 10.5332C9.11865 9.3096 9.14535 9.37703 9.23901 10.9927C9.29601 11.9757 9.30641 11.8408 9.33661 9.75189L9.37012 7.40805L9.43221 9.75189C9.52781 13.3591 9.56618 13.3811 9.75314 9.93571C9.86664 7.84422 9.9697 8.03726 9.99843 10.3953L10.0246 12.5553L10.0736 10.5332C10.1323 8.11398 10.25 8.40128 10.2805 11.0387L10.3012 12.831L10.3542 11.2685C10.414 9.50774 10.4415 9.52171 10.5349 11.3604L10.6001 12.6472L10.6366 10.5331L10.673 8.4191L10.7248 10.4412C10.7636 11.9583 10.7817 12.1776 10.7971 11.3191C10.8241 9.8015 10.9876 9.96327 11.0263 11.546C11.0425 12.211 11.0643 11.7298 11.0756 10.4588C11.0888 8.96695 11.1278 8.19811 11.1884 8.23526C11.2459 8.27046 11.2881 9.29088 11.2997 10.9293C11.3099 12.3798 11.3327 13.2368 11.3504 12.8339C11.3696 12.3938 11.4269 12.0741 11.4939 12.033C11.5728 11.9847 11.619 11.3911 11.6518 10.0081C11.6939 8.22814 11.7044 8.12957 11.7676 8.91583C11.8058 9.39122 11.8465 10.6114 11.8578 11.6273L11.8785 13.4744L11.9301 11.3144L11.9816 9.1544L12.018 11.6821L12.0541 14.2097L12.1622 12.0038L12.2704 9.79781L12.2997 11.6361L12.3288 13.4744L12.4044 11.8291C12.446 10.9241 12.4991 10.1382 12.5223 10.0827C12.5454 10.0271 12.57 10.4366 12.5769 10.9927C12.5829 11.5488 12.6241 12.1692 12.6661 12.3714C12.7383 12.7167 12.7445 12.6999 12.7702 12.0957L12.7974 11.4523L12.8567 12.1416C12.9129 12.7947 12.9174 12.7705 12.9439 11.6821C12.9594 11.0502 13.0013 9.95406 13.0372 9.24632L13.1022 7.95952L13.1186 9.39264C13.1276 10.1808 13.166 11.463 13.2042 12.242L13.2736 13.6582L13.3272 11.5442C13.3783 9.52751 13.3803 9.56562 13.3736 12.3714C13.3696 13.9891 13.3942 15.1059 13.4277 14.8531C13.4613 14.6003 13.4927 12.9149 13.4973 11.1076C13.5023 9.00851 13.5386 7.82164 13.5972 7.82164C13.6557 7.82164 13.6978 9.17669 13.714 11.5672C13.7382 15.1599 13.7404 15.1105 13.7614 10.354C13.7763 7.07794 13.8148 5.42607 13.8754 5.48625C13.9331 5.54355 13.9764 7.38562 13.992 10.445L14.017 15.3127L14.0393 9.71361C14.0515 6.63408 14.093 4.14542 14.1312 4.1833C14.1694 4.221 14.2232 6.74091 14.2507 9.78256L14.3007 15.3127L14.3277 9.20038C14.3425 5.8442 14.3744 3.14633 14.3987 3.19612C14.3987 3.19607 14.3987 3.19531 14.3987 3.19531L14.3989 3.19551C14.3988 3.1954 14.3988 3.19629 14.3987 3.19629C14.4229 3.25869 14.4754 6.00725 14.5151 9.30791L14.5876 15.3127L14.6198 10.2114C14.6457 6.14877 14.6649 5.49379 14.7147 6.9944C14.7494 8.03075 14.7872 10.0989 14.7993 11.5902C14.8112 13.0815 14.8487 14.5291 14.8818 14.8072C14.915 15.0852 14.9387 13.286 14.9345 10.8089C14.9265 5.95313 14.9535 6.13695 15.0697 11.728L15.1441 15.3127L15.1743 11.4983C15.1958 8.85829 15.225 7.99511 15.2701 8.69485C15.3058 9.25092 15.3448 10.7399 15.3563 12.0038C15.3678 13.2676 15.4045 14.5291 15.4378 14.8072C15.471 15.0852 15.4919 13.8444 15.4846 12.0497L15.4706 8.78676L15.5506 11.4983C15.6512 14.9205 15.6909 15.2917 15.7282 13.1527L15.7578 11.4523L15.834 13.2439C15.8759 14.2293 15.9273 15.0979 15.9482 15.1741C15.9693 15.2504 15.9951 14.5889 16.0061 13.7042C16.0279 11.9562 16.1577 11.8637 16.1995 13.5663C16.221 14.4397 16.2321 14.5023 16.2811 14.0259L16.3378 13.4744L16.4039 13.888C16.4401 14.1155 16.4846 14.4257 16.5029 14.5774C16.5211 14.729 16.5479 14.15 16.5621 13.2906C16.5766 12.4312 16.6176 11.4178 16.6537 11.0387C16.7086 10.4609 16.7236 10.6022 16.7451 11.9119C16.7596 12.7713 16.8013 13.7433 16.8384 14.0719L16.9062 14.6693L16.9387 13.9799C16.9706 13.3049 16.9724 13.3116 17.0272 14.3017C17.0717 15.1033 17.0909 14.8083 17.1198 12.877C17.157 10.3815 17.1684 10.423 17.2957 13.5186L17.3696 15.3127L17.3944 13.0148C17.408 11.751 17.4371 10.7821 17.4586 10.8616C17.4804 10.9412 17.5314 11.9753 17.5725 13.1595L17.6471 15.3127L17.6631 12.6931C17.6735 10.9629 17.7094 10.1204 17.7686 10.2114C17.8197 10.2899 17.8666 11.4201 17.8774 12.831C17.8879 14.196 17.9176 15.0645 17.9434 14.7612L17.9905 14.2097L18.045 14.7612C18.075 15.0645 18.0818 14.3614 18.0606 13.1987C18.0381 11.98 18.0566 11.1171 18.1038 11.1611C18.1488 11.2031 18.2078 12.1544 18.2352 13.2751L18.2852 15.3127L18.3139 12.6012C18.3297 11.1099 18.3739 9.53816 18.412 9.10846C18.4658 8.50011 18.4842 8.79354 18.4954 10.4337C18.5034 11.5922 18.5391 12.5111 18.5745 12.4759C18.6099 12.4408 18.6653 11.617 18.6976 10.6453L18.7564 8.87866L18.7899 11.1765C18.8298 13.9021 18.8613 13.506 18.9701 8.91495L19.0515 5.47783L19.0249 10.3953C18.9961 15.7041 18.979 15.9564 19.2448 7.17827C19.3213 4.65435 19.3269 4.92012 19.3025 9.84378C19.277 14.9856 19.2805 15.1175 19.3566 12.0497C19.5463 4.41447 19.6076 3.81218 19.5907 9.75188C19.5742 15.4941 19.6034 15.1577 19.7967 7.36209C19.8791 4.04019 19.8797 4.06278 19.8667 9.65996C19.8597 12.769 19.8798 14.7336 19.9118 14.0259C19.9437 13.3182 19.9753 11.4983 19.9818 9.98166C19.9878 8.46507 20.0248 6.93468 20.0627 6.58081C20.1044 6.19089 20.1502 7.78418 20.1791 10.6251L20.2267 15.3127L20.2552 9.98166C20.271 7.04958 20.3194 4.56788 20.3632 4.46678C20.4093 4.36064 20.4547 6.61388 20.4709 9.79782L20.499 15.3127L20.5484 11.6361C20.5758 9.61399 20.6158 7.98018 20.6377 8.00549C20.6598 8.03069 20.7021 9.68522 20.7319 11.6821L20.786 15.3127L20.806 11.414C20.8172 9.26974 20.8565 7.54549 20.8936 7.58235C20.9308 7.61915 20.9856 9.37353 21.0157 11.481L21.0701 15.3127L21.0887 11.82C21.0995 9.7546 21.1436 8.27084 21.1967 8.1893C21.2556 8.0987 21.2927 9.29841 21.3041 11.6821L21.3215 15.3127L21.3837 11.5203C21.418 9.43447 21.4733 7.70082 21.5067 7.66762C21.5399 7.63432 21.5746 9.34099 21.5831 11.46L21.5985 15.3127L21.6666 10.5041C21.7041 7.85921 21.7598 5.67037 21.7903 5.64012C21.8207 5.60992 21.8525 7.77383 21.8607 10.4489L21.8758 15.3127L21.9495 10.717C22.0561 4.06878 22.0827 3.86536 22.1117 9.47612C22.1262 12.2313 22.1659 14.6716 22.2003 14.8991C22.2346 15.1266 22.2512 13.8444 22.237 12.0497C22.2225 10.2551 22.2478 8.24906 22.2932 7.59186C22.3603 6.61281 22.3794 7.15242 22.3995 10.5791C22.4127 12.8793 22.4502 14.8839 22.4824 15.0337C22.5147 15.1835 22.5297 13.7566 22.5161 11.8627C22.5025 9.96878 22.5272 7.48846 22.5714 6.35101C22.6503 4.3214 22.6522 4.36068 22.6776 8.46506C22.692 10.7652 22.731 13.2469 22.7643 13.9799C22.7975 14.713 22.8102 13.2653 22.792 10.7629C22.7738 8.26055 22.798 5.84089 22.8461 5.38591C22.9166 4.7171 22.9381 5.21883 22.9587 8.00549C22.9728 9.90123 23.0128 12.3209 23.0475 13.3825C23.0822 14.4441 23.0927 13.1412 23.0703 10.4872C23.0429 7.23647 23.0613 5.58667 23.1271 5.43187C23.1985 5.26331 23.2315 5.99784 23.2511 8.1893L23.2777 11.1765L23.3264 8.78676C23.3743 6.43368 23.4894 6.12213 23.5337 8.22522C23.5506 9.01546 23.5614 8.93438 23.607 7.68378L23.6604 6.21315L23.6918 8.14337C23.7321 10.6342 23.8628 10.0376 23.8933 7.2242L23.9151 5.2021L23.9838 7.94301C24.0215 9.45046 24.0773 10.7085 24.1078 10.7387C24.1382 10.7689 24.1725 10.2594 24.1839 9.60646C24.1989 8.74875 24.2188 9.01864 24.256 10.5791L24.3076 12.7391L24.3396 10.5791C24.3879 7.32227 24.4973 6.64475 24.5397 9.33827L24.5744 11.5442L24.6237 9.75188C24.6587 8.47748 24.6975 8.03781 24.7573 8.23044C24.8049 8.3836 24.8217 9.98163 24.796 11.9072C24.7712 13.7803 24.7797 14.6923 24.8156 13.934C24.8513 13.1757 24.8863 11.6888 24.8928 10.6297C24.9018 9.18818 24.9312 8.73038 25.0103 8.80885C25.0868 8.88475 25.1054 9.7956 25.078 12.1133C25.057 13.873 25.0678 14.9611 25.1024 14.5314C25.1367 14.1017 25.1743 12.53 25.1859 11.0387C25.2171 7.08294 25.3301 6.30443 25.373 9.75188C25.4066 12.4499 25.4101 12.493 25.4609 10.9008C25.522 8.99022 25.5529 9.18858 25.6411 12.0497L25.7047 14.1178L25.7372 10.5791C25.7732 6.63453 25.8799 7.0603 25.9331 11.3604C25.9635 13.8232 25.9644 13.8298 26.0137 12.2336C26.058 10.8035 26.0708 10.7016 26.1315 11.3144C26.1691 11.6936 26.2356 12.7483 26.2791 13.6582C26.3544 15.2317 26.3572 15.1822 26.335 12.6472C26.322 11.1811 26.339 10.3453 26.3728 10.7897C26.4119 11.3064 26.4786 11.6246 26.5574 11.6727C26.6549 11.7321 26.6743 12.1169 26.6501 13.5049C26.6332 14.4712 26.6471 15.1904 26.6826 15.1034C26.7172 15.0164 26.7485 14.5728 26.7525 14.1178C26.7565 13.6628 26.7906 12.8769 26.8286 12.3714C26.8936 11.505 26.9004 11.5629 26.9469 13.3825L26.9961 15.3127L27.0272 12.785C27.0444 11.3948 27.0883 9.69901 27.1245 9.01654C27.1778 8.01336 27.1968 8.42708 27.2241 11.1765C27.2441 13.1792 27.2801 14.1995 27.3115 13.6582C27.3538 12.932 27.3757 12.8259 27.4163 13.1527C27.4447 13.3802 27.479 12.4909 27.4931 11.1765C27.5078 9.81099 27.5505 8.88524 27.5928 9.01654C27.6337 9.14293 27.6719 9.57724 27.6777 9.98166C27.6847 10.4931 27.7156 10.675 27.7782 10.5791C27.895 10.3998 27.8842 10.2536 27.959 13.0148L28.0213 15.3127L28.0387 12.0673C28.0502 9.93144 28.0877 8.84128 28.1487 8.87866C28.2065 8.91406 28.2493 9.9979 28.2622 11.7566L28.2829 14.5774L28.334 12.1876C28.3752 10.2587 28.3893 10.0718 28.4061 11.218C28.4193 12.1162 28.4592 12.6059 28.5151 12.5506C28.5635 12.5025 28.6178 12.1531 28.6357 11.774C28.6664 11.1221 28.67 11.1369 28.7015 12.0497L28.7352 13.0148L28.7947 11.805C28.8276 11.1374 28.9006 10.5397 28.9579 10.4712C29.015 10.403 29.0788 10.1821 29.0995 9.98058C29.1202 9.77902 29.1515 10.6274 29.1691 11.8659L29.2009 14.1178L29.2657 12.785C29.3012 12.052 29.3434 10.501 29.3589 9.33827L29.3669 8.73486C28.0439 6.33115 26.0932 4.32465 23.7193 2.92572C21.3454 1.52679 18.6358 0.786942 15.8744 0.783722L15.8744 0.783569ZM3.90773 6.46756C3.74926 6.66399 3.59571 6.86427 3.44722 7.06822L3.49592 9.47614C3.53782 11.5606 3.55032 11.7365 3.56762 10.4788C3.57912 9.63994 3.61992 8.44046 3.65812 7.81323C3.72142 6.7737 3.73202 6.90844 3.77614 9.33827L3.82434 12.0038L3.85454 9.01657C3.86474 8.03964 3.88494 7.13098 3.90784 6.46756H3.90773ZM3.44269 7.07414C3.35633 7.18369 3.27149 7.29441 3.18818 7.40627C3.19218 7.60742 3.19718 7.82281 3.20358 8.23529C3.24508 10.8407 3.37261 11.2339 3.4123 8.87869L3.44269 7.07414ZM3.15938 7.4472C3.11425 7.51888 3.06973 7.59093 3.0258 7.66335C3.0381 8.06697 3.0483 8.55515 3.0531 9.11621L3.0742 11.5442L3.1251 9.01657C3.1416 8.19897 3.1509 7.76204 3.1595 7.4472H3.15938ZM2.8922 7.87947C2.83412 7.97115 2.77703 8.06343 2.72094 8.15631C2.73814 8.50667 2.75184 8.98911 2.75894 9.61401L2.78654 12.0038L2.84444 9.41025C2.85724 8.8322 2.87434 8.31854 2.89224 7.87947H2.8922ZM2.56273 8.41249C2.53883 8.45068 2.51509 8.48898 2.49153 8.52737L2.53423 9.06253L2.56233 8.41913C2.56245 8.41713 2.56257 8.41513 2.56259 8.41313L2.56273 8.41249ZM2.41503 8.65125C2.33125 8.80906 2.25025 8.96832 2.1721 9.12895C2.1781 9.58837 2.1847 10.1335 2.1931 10.9927C2.2325 15.0937 2.33402 14.5461 2.38898 9.93571C2.39598 9.34169 2.40518 8.94662 2.41498 8.65125H2.41503ZM29.4578 8.89197C29.4911 9.69613 29.5283 10.7937 29.5434 11.4521C29.5704 12.6208 29.5781 12.6714 29.6278 12.0036C29.6696 11.444 29.6951 11.3452 29.735 11.59C29.7638 11.767 29.7988 11.3947 29.813 10.7628C29.82 10.4177 29.8377 10.0458 29.8569 9.7106C29.7322 9.43386 29.5991 9.16085 29.458 8.89197H29.4578ZM2.10167 9.27347C2.07498 9.32747 2.04861 9.38162 2.02257 9.43593L2.05277 11.0847L2.10167 9.27347ZM1.81367 9.86481C1.78759 9.91756 1.76182 9.97045 1.73637 10.0235L1.78607 12.0038L1.81367 9.86481ZM30.0213 10.0752C30.0353 10.5194 30.0451 10.5667 30.0597 10.1601C30.047 10.1318 30.0342 10.1035 30.0213 10.0752V10.0752ZM30.2536 10.6148L30.327 12.8309L30.3569 10.9231C30.3236 10.82 30.2892 10.7172 30.2537 10.6148H30.2536ZM30.478 11.2852C30.5283 13.9753 30.611 14.3788 30.6509 11.8009C30.5964 11.628 30.5387 11.4561 30.478 11.2852ZM1.25359 11.3089C1.23681 11.3537 1.22024 11.3986 1.20389 11.4435L1.22849 12.7391L1.25359 11.3089ZM23.946 11.5812C23.9358 11.5812 23.9295 12.1087 23.9295 13.0145C23.9296 14.2783 23.9428 14.7828 23.9586 14.1353C23.9748 13.4878 23.9743 12.4538 23.9586 11.8374C23.9546 11.6655 23.9496 11.5837 23.9459 11.5812H23.946ZM1.02694 12.0912C1.00384 12.1776 0.981504 12.2642 0.959938 12.351C0.981538 12.5187 1.00494 12.424 1.02694 12.0912ZM23.3877 12.5038C23.3787 12.5196 23.3717 12.9056 23.3717 13.566C23.3717 14.5265 23.3853 14.932 23.402 14.467C23.4189 14.0021 23.4189 13.2162 23.402 12.7207C23.397 12.5658 23.3918 12.4965 23.3874 12.5038H23.3877ZM23.666 12.5635C23.657 12.5877 23.6497 12.9693 23.6497 13.6119C23.6497 14.5471 23.6636 14.9297 23.6803 14.4621C23.6972 13.9945 23.6972 13.2293 23.6803 12.7617C23.6753 12.6169 23.67 12.5541 23.6656 12.5635H23.666ZM24.4999 12.712C24.4909 12.7345 24.4836 13.0956 24.4836 13.7038C24.4836 14.5885 24.4976 14.9504 24.5145 14.5081C24.5317 14.0657 24.5317 13.3419 24.5145 12.8996C24.5095 12.7613 24.5042 12.7017 24.4999 12.712ZM13.0999 12.7705C13.0897 12.7865 13.0831 13.1455 13.0831 13.7497C13.0831 14.6092 13.097 14.9484 13.1142 14.5036C13.1314 14.0588 13.1311 13.3556 13.1142 12.941C13.1102 12.8374 13.1062 12.7825 13.102 12.7717C13.1012 12.7697 13.1012 12.7697 13.1 12.7697L13.0999 12.7705ZM18.475 13.2478C18.4648 13.261 18.4583 13.5423 18.4583 14.0255C18.4583 14.7332 18.4725 15.035 18.49 14.696C18.5078 14.357 18.5078 13.7779 18.49 13.4092C18.485 13.2965 18.4795 13.2461 18.4749 13.2478H18.475ZM31.045 13.4726L31.0716 15.3125L31.0796 13.7559C31.0689 13.6613 31.0574 13.5669 31.045 13.4726V13.4726ZM16.7118 13.9007C16.701 13.9129 16.6936 14.109 16.6936 14.4391C16.6936 14.9194 16.7093 15.1158 16.7282 14.8757C16.7471 14.6356 16.7471 14.2427 16.7282 14.0025C16.7232 13.9275 16.7168 13.8952 16.7118 13.9007ZM18.7532 13.9609C18.7409 13.9529 18.7325 14.1478 18.7325 14.485C18.7325 14.9399 18.7487 15.1145 18.7677 14.8729C18.787 14.6312 18.7866 14.259 18.7677 14.0457H18.7669C18.7619 13.993 18.7579 13.9657 18.7532 13.961L18.7532 13.9609ZM25.3335 13.9609C25.3213 13.9539 25.313 14.1484 25.313 14.485C25.313 14.9399 25.3291 15.1145 25.3483 14.8729C25.3676 14.6312 25.3672 14.259 25.3483 14.0457H25.3475C25.3425 13.993 25.3373 13.9656 25.3336 13.961L25.3335 13.9609ZM24.2179 14.1369C24.2067 14.1389 24.1987 14.2988 24.1987 14.5769C24.1987 14.9813 24.2146 15.1583 24.2343 14.97C24.2543 14.7818 24.2547 14.4509 24.2343 14.2347H24.2351C24.2301 14.1672 24.2231 14.1358 24.218 14.1368L24.2179 14.1369ZM12.259 14.5821C12.2468 14.5813 12.2375 14.6789 12.2375 14.8526C12.2375 15.1054 12.2544 15.2199 12.2762 15.1068C12.2983 14.9938 12.2987 14.787 12.2762 14.6472H12.2782C12.2722 14.6035 12.2652 14.5824 12.2596 14.5821L12.259 14.5821ZM12.8106 14.9411L12.8104 14.9413C12.7937 14.9353 12.782 14.9878 12.782 15.0826C12.782 15.209 12.803 15.2607 12.8288 15.1975C12.8543 15.1343 12.8543 15.0309 12.8288 14.9677C12.8228 14.9519 12.8163 14.9432 12.8107 14.941L12.8106 14.9411ZM13.0981 15.3122L13.0486 19.2186C13.0201 21.4519 12.9847 22.4951 12.9655 21.6543C12.815 15.0852 12.8073 15.0041 12.7728 19.6322L12.7406 23.9522L12.6681 20.0587C12.6282 17.9173 12.5724 16.1422 12.5441 16.1141C12.5156 16.0859 12.4859 17.4244 12.4779 19.0884L12.4631 22.1139L12.3884 19.4943C12.2653 15.1821 12.254 15.1556 12.2122 19.0807L12.172 22.8492L12.1212 20.1837C12.0677 17.3645 12.0445 17.264 11.9406 19.4024L11.8759 20.7352L11.8531 19.7241C11.838 19.0609 11.8029 18.7763 11.7506 18.8969C11.6869 19.044 11.6677 19.0073 11.6539 18.713L11.6367 18.3454L11.5599 18.713C11.5178 18.9152 11.4741 19.7838 11.4628 20.6432C11.4435 22.117 11.4387 22.1562 11.3752 21.3326C11.3383 20.8524 11.2969 19.5701 11.2835 18.4833L11.2589 16.5071L11.184 18.3348C11.1428 19.3399 11.09 20.2085 11.0665 20.265C11.0431 20.3216 11.0139 19.685 11.0018 18.8509L10.9796 17.3343L10.9135 19.1075C10.8771 20.0827 10.8211 20.9066 10.7893 20.9382C10.7575 20.9698 10.7239 19.841 10.7145 18.4297L10.6976 15.8637L10.6339 17.61C10.5989 18.5706 10.558 19.7494 10.5434 20.2296C10.52 20.9932 10.5088 21.0451 10.4533 20.6432L10.3897 20.1837L10.3641 20.6892C10.299 21.9807 10.1948 21.6192 10.1657 19.9998L10.1343 18.2534L10.0825 20.3215L10.0309 22.3896L9.99799 20.8271C9.97979 19.9677 9.93618 18.7682 9.90088 18.1615C9.84458 17.19 9.83268 17.3488 9.80075 19.4943L9.76456 21.93L9.71194 20.2296C9.66764 18.8006 9.65445 18.6833 9.62895 19.4943C9.61205 20.0251 9.56846 20.8524 9.53136 21.3326C9.47686 22.0386 9.45794 21.7569 9.43324 19.862C9.40444 17.6744 9.39825 17.5978 9.33615 18.713C9.29965 19.3702 9.25585 20.4249 9.23885 21.0569C9.20975 22.1417 9.20535 22.1057 9.15585 20.4135L9.10335 18.6211L9.07225 20.5054C9.03305 22.8743 8.91083 22.5163 8.86806 19.9079L8.83665 17.9777L8.78516 20.2296L8.73395 22.4815L8.71315 20.2833C8.70165 19.0742 8.66666 18.1107 8.63506 18.142C8.60356 18.1733 8.54775 19.4313 8.51122 20.9377L8.44502 23.6764L8.42941 19.9616C8.42141 17.9184 8.38961 16.2712 8.35931 16.3012C8.32921 16.3312 8.27341 18.1477 8.2355 20.3379L8.16672 24.3198L8.13531 20.4135C8.10281 16.388 8.01587 16.6784 7.9427 21.0569L7.9113 22.9411L7.8583 21.3326L7.8053 19.7241L7.7676 22.1139L7.73 24.5037L7.6684 21.3326C7.6344 19.5885 7.5912 18.0168 7.572 17.8398C7.5528 17.6629 7.5148 19.0692 7.4874 20.965L7.4376 24.4118L7.4161 21.0186C7.4042 19.1524 7.3635 17.6564 7.3252 17.6943C7.287 17.7321 7.2329 19.3417 7.2052 21.2712L7.1548 24.7794L7.1198 20.5054C7.0806 15.7549 6.97919 16.2037 6.92231 21.3786L6.88911 24.4118L6.83871 21.5624L6.78841 18.713L6.75791 21.4705C6.74101 22.9871 6.69431 24.3313 6.65347 24.4577C6.61207 24.5859 6.56557 23.3054 6.54847 21.5624L6.51777 18.4373L6.46797 21.8381L6.41817 25.239L6.38557 22.8032C6.36777 21.4636 6.32357 19.6437 6.28777 18.759C6.22657 17.2445 6.22067 17.3386 6.18514 20.3675L6.14734 23.5845L6.09734 20.4594C6.04524 17.2075 6.04194 17.2515 5.91651 22.8492L5.85461 25.6066L5.82071 21.0109L5.78671 16.4152L5.68026 20.6432L5.57383 24.8713L5.53603 21.3786L5.49813 17.8858L5.44843 21.4705C5.40193 24.8257 5.39653 24.9139 5.36593 22.8492C5.34773 21.6359 5.30393 19.9194 5.26813 19.0347C5.21083 17.6172 5.19863 17.8683 5.1653 21.1488L5.1273 24.8713L5.0776 21.3326C5.0502 19.3863 5.0125 17.9386 4.9934 18.1156C4.9745 18.2925 4.9312 19.9883 4.897 21.8841L4.8351 25.3309L4.7995 20.5973C4.7584 15.1553 4.7285 15.2734 4.62536 21.2866L4.55126 25.6066L4.52176 21.1947L4.49246 16.7828L4.41786 19.5403C4.31549 23.3251 4.28553 23.6812 4.24008 21.6543C4.20408 20.0453 4.19708 20.1466 4.15088 22.9411L4.10278 25.8587C5.54531 27.5639 7.34643 28.9357 9.37991 29.8778C11.4134 30.8199 13.63 31.3096 15.8745 31.3125C18.8233 31.3092 21.7091 30.466 24.1886 28.8831C26.668 27.3002 28.6369 25.0443 29.8608 22.3837L29.7854 20.6892L29.6851 18.4373L29.6354 20.0918L29.5857 21.7462L29.5538 20.0918C29.496 17.103 29.3933 16.8341 29.3608 19.5862C29.3265 22.504 29.2907 22.4476 29.1863 19.3105C29.1115 17.0609 29.1113 17.06 29.0766 18.4373L29.0419 19.816L28.99 17.8858L28.9381 15.9556L28.9176 18.328C28.9044 19.881 28.8653 20.6804 28.8046 20.6432C28.7471 20.608 28.7046 19.5867 28.6924 17.9494L28.6727 15.3122L28.6229 17.3499C28.5956 18.4706 28.5417 19.4184 28.5034 19.4563C28.4652 19.494 28.4246 18.6806 28.4131 17.6485L28.392 15.7717L28.3411 18.3454L28.2904 20.919L28.2571 18.8969C28.2102 16.0505 28.0871 17.0618 28.0502 20.5973L28.0207 23.4007L27.9704 20.5054C27.9234 17.8038 27.9179 17.73 27.888 19.4024C27.8277 22.7846 27.7216 22.4961 27.6854 18.8509L27.6504 15.3122L27.6018 17.9317C27.5751 19.3725 27.5226 20.4479 27.4851 20.3215C27.4477 20.1951 27.408 19.8849 27.3972 19.6322C27.3864 19.3794 27.3523 19.6483 27.3218 20.2296C27.2742 21.1329 27.2621 20.9791 27.2384 19.1726C27.1982 16.1106 27.0672 16.9705 27.0353 20.5054L27.0083 23.4926L26.9464 20.4135C26.9124 18.7199 26.8697 17.293 26.8517 17.2424C26.8339 17.1919 26.795 17.8329 26.7657 18.6671C26.7126 20.1782 26.7123 20.1749 26.6761 17.7479L26.64 15.3122L26.5757 16.9666C26.5403 17.8766 26.4963 19.0347 26.4784 19.5403C26.4606 20.0458 26.4231 19.3013 26.3952 17.8858L26.3445 15.3122L26.3094 18.0696C26.2744 20.8177 26.1775 21.0154 26.1066 18.4833C26.0888 17.8513 26.0519 18.7406 26.0245 20.4594L25.9745 23.5845L25.945 20.4135C25.9037 15.9766 25.7792 15.5344 25.7378 19.6781L25.7041 23.033L25.6558 20.1377L25.6075 17.2424L25.5149 20.5973L25.4222 23.9522L25.3744 19.6322L25.3268 15.3122L25.2921 19.0807C25.2732 21.1534 25.2292 23.5317 25.1945 24.3658C25.1492 25.4551 25.1212 24.3934 25.0949 20.5973L25.0582 15.3122L25.0026 20.2756C24.9722 23.0054 24.9293 25.2596 24.9077 25.2849C24.8859 25.3101 24.8463 23.0767 24.8196 20.3215L24.7708 15.3122L24.7489 20.7276C24.7369 23.706 24.6958 26.1118 24.6575 26.0739C24.6192 26.036 24.5665 23.5992 24.5402 20.6587L24.4924 15.3122L24.4706 21.1412C24.4587 24.3472 24.4176 26.9392 24.3794 26.9014C24.3412 26.8636 24.2878 24.2403 24.2608 21.0723L24.2119 15.3122L24.1912 21.0953C24.18 24.2759 24.1393 26.8471 24.101 26.8093C24.0628 26.7714 24.0087 24.1691 23.9804 21.0263L23.9292 15.3122L23.9 21.8381C23.8831 25.5981 23.8385 28.2082 23.7943 27.9964C23.7523 27.7942 23.7054 24.8575 23.6902 21.4705L23.6628 15.3122L23.6145 21.0569C23.5597 27.5573 23.5228 27.3972 23.4342 20.2756L23.3725 15.3122L23.3542 21.8766C23.344 25.4869 23.31 28.4148 23.2781 28.3831C23.2463 28.3514 23.1908 25.3976 23.155 21.8189L23.09 15.3122L23.074 21.9225C23.065 25.5581 23.0331 28.5078 23.0023 28.4774C22.9719 28.447 22.9161 25.4724 22.8788 21.8672L22.811 15.3122L22.7756 21.7003C22.7366 28.6998 22.7169 28.5759 22.6064 20.6432L22.5321 15.3122L22.5001 21.5624L22.4682 27.8126L22.3625 21.5624L22.2567 15.3122L22.2184 20.4594L22.1799 25.6066L22.131 21.1028C22.104 18.6257 22.0654 16.6197 22.0448 16.6449C22.0245 16.6702 21.9794 19.214 21.9446 22.2977L21.8818 27.9045L21.8908 21.6084C21.8958 18.1455 21.8878 15.6431 21.8754 16.0475C21.8622 16.4519 21.8096 16.8655 21.7587 16.9666C21.702 17.0791 21.655 18.8827 21.6376 21.6084C21.6128 25.4851 21.6099 25.3653 21.6155 20.6892C21.6195 17.3776 21.594 15.7006 21.5496 16.3232C21.51 16.8793 21.4448 19.1749 21.4048 21.4245L21.332 25.5147L21.3148 21.6161C21.3058 19.4718 21.2671 17.7475 21.2299 17.7844C21.1927 17.8213 21.1356 19.7206 21.1031 22.0049L21.0441 26.1581L21.0549 20.7352C21.0668 14.7551 20.9736 14.9823 20.8475 21.2407L20.7669 25.239L20.7772 20.2924C20.7822 17.5718 20.7603 15.4417 20.7272 15.5588C20.694 15.6759 20.6568 17.0953 20.6445 18.713C20.6322 20.3307 20.5931 22.8952 20.558 24.4118C20.5082 26.5559 20.4957 25.8526 20.5017 21.2491C20.5057 17.9931 20.4805 15.4907 20.4452 15.6883C20.4099 15.8859 20.373 17.1229 20.3631 18.4373C20.3529 19.7517 20.3143 21.675 20.2771 22.7113C20.2269 24.1082 20.2124 23.395 20.2204 19.9539C20.2254 17.4009 20.2057 15.6224 20.174 16.0015C20.1425 16.3807 20.1056 18.2006 20.0922 20.0458C20.079 21.891 20.0392 24.0418 20.0041 24.8254C19.9601 25.8045 19.9298 24.5398 19.9072 20.7811L19.8743 15.3122L19.8138 20.712C19.7805 23.6819 19.7252 26.1395 19.6911 26.1734C19.6571 26.2072 19.6195 23.7773 19.6079 20.7736L19.5864 15.3122L19.5382 20.4289C19.5115 23.2431 19.4587 25.5765 19.4205 25.6143C19.3823 25.6522 19.3417 23.3499 19.3305 20.4978L19.3101 15.3122L19.2611 20.0153C19.2341 22.602 19.1806 24.7494 19.1423 24.7873C19.104 24.8251 19.0631 22.7088 19.0511 20.0842L19.0293 15.3122L18.9815 19.816C18.9553 22.2931 18.9033 24.2164 18.8657 24.09C18.8283 23.9637 18.7872 21.9369 18.7747 19.5862L18.7519 15.3122L18.704 18.9888C18.6777 21.0109 18.6252 22.5619 18.5878 22.4356C18.5502 22.3092 18.512 20.6547 18.5029 18.759L18.4858 15.3122L18.4199 18.6942C18.3837 20.5542 18.3284 22.1018 18.2966 22.1333C18.2648 22.1648 18.2337 21.098 18.227 19.7625C18.221 18.4271 18.1859 16.8793 18.1501 16.3232L18.085 15.3122L18.069 16.7753C18.06 17.5799 18.0312 18.2164 18.0043 18.1897C17.9773 18.1629 17.9218 17.9595 17.8808 17.7377C17.8184 17.3994 17.7955 17.527 17.738 18.5292C17.7004 19.1864 17.6574 19.7655 17.6428 19.816C17.628 19.8665 17.5859 18.9979 17.5489 17.8858C17.512 16.7736 17.4511 15.7398 17.4141 15.5881C17.377 15.4365 17.365 15.8246 17.3874 16.4509C17.4172 17.2817 17.3999 17.5723 17.3237 17.5255C17.2563 17.4843 17.2192 17.1046 17.2192 16.4611C17.2192 15.911 17.188 15.4418 17.1496 15.4183C17.1114 15.3948 17.0827 16.0436 17.0863 16.8604L17.0923 18.3454L17.0358 17.0126L16.9793 15.6798L16.9475 17.1505C16.93 17.9593 16.8872 19.1175 16.8518 19.7241C16.8 20.6173 16.7827 20.3026 16.7609 18.0696C16.7461 16.553 16.7164 15.3761 16.6953 15.4542C16.6738 15.5323 16.6227 16.6904 16.5814 18.0278L16.5063 20.4594L16.4848 18.759C16.4582 16.6288 16.3281 15.6863 16.2884 17.3343C16.2642 18.3448 16.2572 18.382 16.2073 17.7783C16.1457 17.034 16.0143 16.7698 16.0129 17.388C16.0129 17.6113 15.9811 18.0214 15.9435 18.2994C15.8916 18.6809 15.8626 18.3763 15.8253 17.0586L15.7759 15.3122L15.7412 17.4262C15.7121 19.1956 15.6955 19.4054 15.6384 18.713C15.6009 18.2581 15.5562 17.3067 15.5392 16.599C15.5182 15.7182 15.493 16.1823 15.4599 18.0696L15.4113 20.8271L15.3404 18.5292C15.2199 14.6349 15.1327 15.1049 15.1445 19.5862C15.1505 21.9369 15.1246 23.5707 15.0866 23.2169C15.0485 22.863 15.0027 20.9397 14.9846 18.9428L14.9521 15.3122L14.9041 18.2534C14.8543 21.2783 14.7296 21.7114 14.7055 18.9428C14.6985 18.1087 14.6664 16.9506 14.6349 16.3692C14.6034 15.7878 14.5861 17.3802 14.5967 19.9079C14.6086 22.7942 14.5848 24.3669 14.5327 24.136C14.4869 23.9338 14.4439 22.0519 14.437 19.9539C14.431 17.8559 14.3967 15.9533 14.3622 15.7258C14.3279 15.4983 14.3066 17.4009 14.3151 19.9539C14.3241 22.734 14.2984 24.4481 14.2509 24.2279C14.2069 24.0257 14.163 22.9503 14.1529 21.8381C14.1427 20.726 14.1048 18.8233 14.068 17.61C14.0165 15.9122 14.0072 16.3779 14.0269 19.6322C14.0416 22.0492 14.0209 23.6043 13.9782 23.2628C13.9374 22.9342 13.8906 22.0036 13.8741 21.1947L13.8443 19.7241L13.7899 20.965L13.7353 22.2058L13.7048 21.2407C13.6879 20.7099 13.6446 19.8206 13.6086 19.2645C13.5506 18.363 13.5394 18.4924 13.5061 20.4594C13.4709 22.5404 13.4661 22.457 13.4194 18.9888L13.3697 15.3122L13.3466 20.4594C13.3325 23.5851 13.2884 25.6608 13.2339 25.7445C13.1752 25.8347 13.136 24.0512 13.1209 20.5973L13.0981 15.3122ZM29.9534 15.3122L29.9194 19.1266L29.891 22.3218C30.0475 21.9737 30.1909 21.6199 30.3207 21.2612L30.2876 19.4943L30.2371 16.7828L30.2159 19.211C30.2044 20.5465 30.1635 21.6081 30.1252 21.5703C30.087 21.5324 30.0327 20.1088 30.0045 18.4068L29.9534 15.3122ZM26.9816 15.3902C26.9676 15.3882 26.9579 15.4219 26.9551 15.4888C26.9511 15.5857 26.9729 15.64 27.0038 15.6094C27.0345 15.5789 27.0377 15.4995 27.0108 15.4331C26.9997 15.4055 26.9897 15.3916 26.9813 15.3902L26.9816 15.3902ZM17.9082 15.4009C17.8914 15.3959 17.8796 15.4477 17.8796 15.5422C17.8796 15.6686 17.9006 15.7203 17.9264 15.6571C17.9519 15.5939 17.9519 15.4905 17.9264 15.4273C17.9204 15.4116 17.9141 15.403 17.9085 15.4009L17.9082 15.4009ZM18.2834 15.5014C18.2712 15.5007 18.2619 15.5985 18.2619 15.7722C18.2619 16.0248 18.2788 16.1392 18.3006 16.0262C18.3227 15.9131 18.3231 15.7063 18.3006 15.5666H18.3026C18.2966 15.5229 18.2896 15.5018 18.284 15.5015L18.2834 15.5014ZM28.0152 15.5064C28.0031 15.5134 27.9952 15.6271 27.9952 15.8183C27.9952 16.0963 28.0127 16.2101 28.0337 16.0711C28.0552 15.932 28.0552 15.7045 28.0337 15.5655C28.0277 15.5221 28.0207 15.5034 28.0153 15.5065L28.0152 15.5064ZM15.9674 15.5369C15.9556 15.537 15.9469 15.6557 15.9469 15.8642C15.9469 16.1677 15.9634 16.3027 15.9844 16.1646C16.0056 16.0264 16.0062 15.7783 15.9844 15.6131H15.9852C15.9792 15.5614 15.9727 15.5369 15.9673 15.5369L15.9674 15.5369ZM31.2546 15.7149L31.2506 16.371C31.2572 16.2635 31.2627 16.1559 31.267 16.0482C31.2642 15.9371 31.2603 15.8259 31.2551 15.7149H31.2546ZM21.347 15.7531C21.3368 15.7693 21.3298 16.0274 21.3298 16.4618C21.3298 17.0937 21.3445 17.352 21.3627 17.0361C21.3809 16.7201 21.3809 16.2033 21.3627 15.8873C21.3577 15.7886 21.3519 15.7457 21.347 15.7531H21.347ZM17.6405 15.8237C17.6303 15.8424 17.6236 16.1415 17.6236 16.6455C17.6236 17.3785 17.6382 17.6784 17.6557 17.3119C17.6732 16.9454 17.6732 16.3456 17.6557 15.9791C17.6507 15.8646 17.6451 15.8152 17.6405 15.8237V15.8237ZM13.7481 15.8943C13.7379 15.9156 13.7317 16.2561 13.7317 16.8296C13.7317 17.6637 13.7459 18.0048 13.7631 17.5877C13.7803 17.1706 13.7803 16.4883 13.7631 16.0713C13.7581 15.9409 13.7526 15.8846 13.748 15.8943H13.7481ZM2.14204 17.0069C2.14125 17.0071 2.14004 17.0089 2.14004 17.0129C2.12004 17.1393 2.07044 18.7731 2.02961 20.6436L1.98711 22.596C2.06262 22.7606 2.14108 22.9238 2.22244 23.0856L2.20744 21.0572C2.19074 18.7799 2.16174 17.0007 2.14204 17.0066V17.0069ZM30.743 17.2148C30.7013 17.2397 30.6665 18.3662 30.6498 20.276V20.285C30.7326 19.9987 30.8069 19.71 30.8727 19.4194L30.8571 18.7129C30.8438 18.1063 30.7984 17.4445 30.7562 17.2423C30.7522 17.2209 30.7472 17.2118 30.7431 17.2143L30.743 17.2148ZM1.41596 17.3349L1.32336 20.2302L1.30176 20.9034C1.35913 21.0862 1.41997 21.2678 1.48424 21.4483C1.47924 21.1237 1.47274 20.7924 1.46434 20.2762L1.41596 17.3349ZM30.4462 17.4186C30.4091 17.4478 30.3705 18.4845 30.3593 19.7782L30.3472 21.19C30.4256 20.99 30.4998 20.7883 30.5696 20.5852V20.5832C30.5419 18.8811 30.488 17.4577 30.4498 17.4198C30.449 17.419 30.4478 17.4178 30.4468 17.4196L30.4462 17.4186ZM2.64583 17.6373C2.61563 17.6413 2.58723 18.3214 2.56863 19.7707L2.53253 22.5741L2.48243 19.6788C2.42913 16.6116 2.42293 16.7038 2.30196 22.3903L2.28476 23.1933C2.44312 23.4892 2.61126 23.7799 2.7889 24.0648L2.7717 22.2065C2.7447 19.2717 2.6931 17.6314 2.64608 17.6373H2.64583ZM3.71042 17.695C3.67222 17.7329 3.61802 19.4667 3.59004 21.5479L3.54174 25.1548C3.72095 25.394 3.90717 25.628 4.10019 25.8564L4.07889 22.8959C4.04279 17.7659 3.92696 17.049 3.87108 21.6091L3.82328 25.5155L3.80148 21.5708C3.78948 19.4013 3.74848 17.6571 3.71028 17.695H3.71042ZM3.42313 17.9761C3.38503 17.998 3.34193 19.3664 3.30674 22.0227L3.27384 24.5044L3.22374 21.4712L3.17364 18.438L3.13564 21.6091C3.10094 24.5023 3.09174 24.6472 3.03439 23.2635C2.99969 22.4294 2.95569 20.837 2.93679 19.7248C2.90909 18.1112 2.89229 18.5103 2.85309 21.701L2.82319 24.1245C3.04725 24.4757 3.28567 24.8176 3.53786 25.1494L3.50426 21.1036C3.48676 18.9859 3.45696 17.9568 3.42336 17.9761H3.42313ZM1.88354 18.1623L1.83324 21.1036L1.81424 22.2135C1.85409 22.3041 1.89482 22.3943 1.93643 22.4841L1.91933 21.1036L1.88354 18.1623ZM30.9704 18.2723C30.9602 18.2558 30.9496 18.3915 30.9364 18.6676L30.9067 19.2881C30.9386 19.1408 30.9684 18.9931 30.9959 18.845C30.9889 18.5025 30.9802 18.2891 30.9703 18.2723H30.9704ZM1.11728 18.3057C1.09568 18.2933 1.07158 18.9077 1.03988 20.1169C1.08649 20.2651 1.13538 20.4126 1.18652 20.5592L1.18252 20.3223C1.15962 18.9907 1.13992 18.3186 1.11762 18.3057H1.11728ZM0.806641 18.3445C0.777941 18.3495 0.75514 18.5053 0.73764 18.7824C0.784241 19.013 0.83621 19.2426 0.893509 19.4709C0.874009 18.7927 0.847213 18.3668 0.813713 18.3462C0.811713 18.3442 0.808709 18.3442 0.806709 18.3442L0.806641 18.3445ZM1.64768 19.0355C1.58918 19.0355 1.54714 19.8078 1.53381 21.1266C1.53181 21.3311 1.53081 21.4391 1.52881 21.5808C1.60463 21.7577 1.68382 21.9333 1.76633 22.1073L1.76133 21.5402C1.74813 19.9457 1.70643 19.0355 1.64747 19.0355H1.64768Z" fill="#252f3f"/>
</svg>
