<svg width="21" height="27" viewBox="0 0 21 27" fill="none" xmlns="http://www.w3.org/2000/svg">
<path d="M18.7876 7.47918C18.6891 7.19085 18.5872 6.90602 18.4817 6.62472C18.3762 6.34341 18.2742 6.05507 18.1758 5.7597H15.0955C14.997 6.05507 14.8951 6.34693 14.7896 6.63527C14.6911 6.91658 14.5926 7.19788 14.4942 7.47918H13.1123C13.3865 6.69856 13.6468 5.97772 13.8929 5.31665C14.139 4.65559 14.3781 4.02969 14.6102 3.43895C14.8493 2.84821 15.0849 2.28559 15.317 1.75111C15.5491 1.21663 15.7882 0.689191 16.0343 0.168777H17.2897C17.5358 0.689191 17.7749 1.21663 18.007 1.75111C18.2391 2.28559 18.4711 2.84821 18.7032 3.43895C18.9423 4.02969 19.1849 4.65559 19.4311 5.31665C19.6843 5.97772 19.948 6.69856 20.2222 7.47918H18.7876ZM16.6356 1.58234C16.4739 1.95506 16.2875 2.40867 16.0765 2.94315C15.8726 3.47763 15.6581 4.05782 15.433 4.68372H17.8382C17.6131 4.05782 17.3951 3.47411 17.1842 2.93259C16.9732 2.39108 16.7903 1.941 16.6356 1.58234V1.58234ZM9.2092 7.56357C8.8224 7.56357 8.4321 7.5495 8.03827 7.52137C7.64444 7.5003 7.29983 7.45107 7.00446 7.37368V0.274254C7.15918 0.246121 7.32445 0.221521 7.50026 0.200455C7.67608 0.172321 7.85542 0.15122 8.03827 0.137154C8.22112 0.123087 8.40043 0.11256 8.57625 0.10556C8.7591 0.0985603 8.93141 0.0950546 9.09315 0.0950546C9.53621 0.0950546 9.94762 0.13022 10.3274 0.200546C10.7071 0.263813 11.0342 0.372818 11.3084 0.527565C11.5897 0.682278 11.8077 0.886223 11.9625 1.1394C12.1172 1.39257 12.1945 1.70552 12.1945 2.07825C12.1945 2.42285 12.1101 2.71822 11.9414 2.96436C11.7796 3.2105 11.551 3.40742 11.2557 3.55511C11.6987 3.70279 12.0257 3.9208 12.2367 4.20914C12.4477 4.49747 12.5532 4.86317 12.5532 5.30623C12.5532 6.05872 12.2789 6.62483 11.7304 7.00459C11.1818 7.37732 10.3414 7.56369 9.2092 7.56369V7.56357ZM8.31253 4.18792V6.41373C8.46022 6.4278 8.61845 6.43834 8.78723 6.44534C8.95602 6.4524 9.11074 6.45594 9.25139 6.45594C9.52566 6.45594 9.77883 6.43834 10.0109 6.40314C10.25 6.368 10.454 6.30823 10.6227 6.22381C10.7986 6.13239 10.9357 6.01284 11.0341 5.86515C11.1396 5.71746 11.1924 5.52758 11.1924 5.29551C11.1924 4.88058 11.0412 4.59224 10.7388 4.4305C10.4364 4.26874 10.0179 4.18787 9.48346 4.18787L8.31253 4.18792ZM8.31253 3.14358H9.25139C9.75774 3.14358 10.1551 3.07325 10.4434 2.93259C10.7317 2.78491 10.8759 2.5247 10.8759 2.15198C10.8759 1.80034 10.7247 1.55069 10.4223 1.40301C10.127 1.25532 9.74015 1.18148 9.26193 1.18148C9.05799 1.18148 8.87514 1.18498 8.71339 1.19198C8.55867 1.19905 8.42505 1.20958 8.31253 1.22358V3.14358ZM3.52335 7.63741C2.9748 7.63741 2.48251 7.55303 2.04649 7.38424C1.61047 7.21546 1.24126 6.96931 0.938858 6.64581C0.636458 6.31528 0.404368 5.91442 0.242615 5.44324C0.0808681 4.97205 0 4.43054 0 3.81871C0 3.20687 0.0914301 2.66536 0.274277 2.19418C0.464157 1.72299 0.720842 1.32564 1.04434 1.00214C1.36784 0.671611 1.7476 0.421953 2.18362 0.253166C2.61965 0.0843862 3.08731 0 3.58662 0C3.88902 0 4.16331 0.0245991 4.40945 0.0737991C4.65559 0.115999 4.87009 0.165229 5.05293 0.221489C5.23578 0.277756 5.38698 0.337531 5.50653 0.400818C5.62609 0.464085 5.71048 0.509796 5.7597 0.537956L5.3694 1.62449C5.20061 1.519 4.95799 1.42054 4.64153 1.32912C4.33209 1.23066 3.99452 1.18143 3.62883 1.18143C3.31236 1.18143 3.01699 1.2377 2.74272 1.35022C2.46845 1.45571 2.22934 1.61746 2.02539 1.83546C1.82848 2.05348 1.67377 2.32775 1.56125 2.65829C1.44873 2.98882 1.39246 3.37209 1.39246 3.80811C1.39246 4.19491 1.43466 4.55006 1.51904 4.87356C1.61047 5.19706 1.7476 5.47836 1.93045 5.71747C2.1133 5.94955 2.34537 6.13239 2.62668 6.26601C2.90799 6.3926 3.24556 6.45589 3.63939 6.45589C4.11057 6.45589 4.49384 6.41018 4.78922 6.31876C5.08458 6.2203 5.31313 6.12888 5.47488 6.04449L5.83356 7.13103C5.74916 7.18729 5.63312 7.24355 5.48544 7.2998C5.34479 7.35607 5.17601 7.41234 4.9791 7.46859C4.78218 7.51786 4.56065 7.55653 4.31451 7.58463C4.06837 7.61983 3.80465 7.63743 3.52335 7.63743V7.63741ZM0.365189 26.6392H20.2564V9.39766H0.365189V26.6392ZM4.08646 19.4617L10.2836 11.7389L16.481 19.4617H12.8791V24.3501H7.73756V19.4617H4.08646Z" fill="#252F3F"/>
</svg>
